{
  "status": 200,
  "message": "Success",
  "data": {
    "currentPage": 1,
    "totalPages": 2,
    "totalElements": 15,
    "last": false,
    "summary": {
      "totalProjects": 12,
      "completedProjectCount": 8,
      "inProgressProjectCount": 4,
      "publicProjectCount": 5
    },
    "projects": [
      {
        "id": 1,
        "title": "Project n1",
        "type": "classification",
        "status": "completed",
        "domain": "common",
        "accuracy": 90,
        "rmse": null,
        "target": "성별",
        "dataCount": 2800000,
        "runnung_duration": 100,
        "likeCount": 8,
        "downloadCount": 32,
        "visibility": true,
        "createdAt": "2025-04-22T00:00:00Z",
        "updatedAt": "2025-04-22T00:00:00Z"
      },
      {
        "id": 2,
        "title": "Housing Price Prediction",
        "type": "regression",
        "status": "progress",
        "domain": "common",
        "accuracy": null,
        "rmse": 80,
        "target": "당뇨병 여부",
        "dataCount": 2800000,
        "runnung_duration": 100,
        "likeCount": 8,
        "downloadCount": 32,
        "visibility": false,
        "createdAt": "2025-04-19",
        "updatedAt": "2025-04-19"
      },
      {
        "id": 3,
        "title": "의료 영상 진단 분류",
        "type": "classification",
        "status": "completed",
        "domain": "medical",
        "accuracy": 95.5,
        "rmse": null,
        "target": "폐렴 여부",
        "dataCount": 450000,
        "runnung_duration": 240,
        "likeCount": 24,
        "downloadCount": 87,
        "visibility": true,
        "createdAt": "2025-04-15T09:30:00Z",
        "updatedAt": "2025-04-18T14:20:00Z"
      },
      {
        "id": 4,
        "title": "주식 가격 예측 모델",
        "type": "regression",
        "status": "completed",
        "domain": "finance",
        "accuracy": null,
        "rmse": 62.3,
        "target": "주가 변동",
        "dataCount": 1200000,
        "runnung_duration": 320,
        "likeCount": 42,
        "downloadCount": 125,
        "visibility": true,
        "createdAt": "2025-04-10T08:15:00Z",
        "updatedAt": "2025-04-12T18:45:00Z"
      },
      {
        "id": 5,
        "title": "고객 이탈 예측",
        "type": "classification",
        "status": "progress",
        "domain": "marketing",
        "accuracy": 83.7,
        "rmse": null,
        "target": "이탈 여부",
        "dataCount": 580000,
        "runnung_duration": 150,
        "likeCount": 12,
        "downloadCount": 45,
        "visibility": false,
        "createdAt": "2025-04-05T11:20:00Z",
        "updatedAt": "2025-04-08T16:30:00Z"
      },
      {
        "id": 6,
        "title": "학생 성적 예측",
        "type": "regression",
        "status": "progress",
        "domain": "education",
        "accuracy": null,
        "rmse": 74.8,
        "target": "기말고사 점수",
        "dataCount": 320000,
        "runnung_duration": 90,
        "likeCount": 5,
        "downloadCount": 18,
        "visibility": true,
        "createdAt": "2025-04-01T10:00:00Z",
        "updatedAt": "2025-04-02T09:15:00Z"
      }
    ]
  }
}
